G04 EAGLE Gerber X2 export*
G75*
%MOMM*%
%FSLAX34Y34*%
%LPD*%
%AMOC8*
5,1,8,0,0,1.08239X$1,22.5*%
G01*
%ADD10R,0.700000X4.200000*%
%ADD11R,0.600000X2.000000*%
%ADD12R,1.200000X0.800000*%
%ADD13R,1.600000X1.250000*%
%ADD14R,1.750000X0.450000*%
%ADD15R,0.800000X1.200000*%
%ADD16R,1.300000X1.200000*%
%ADD17R,1.500000X2.600000*%
%ADD18R,1.200000X1.300000*%
%ADD19R,0.630000X0.830000*%
%ADD20R,1.450000X0.450000*%
%ADD21R,1.752600X1.219200*%
%ADD22C,0.240000*%
%ADD23C,0.128000*%
%ADD24R,1.600000X1.800000*%
%ADD25R,4.200000X0.700000*%
%ADD26R,2.000000X0.600000*%


D10*
X399552Y413088D03*
X559552Y413088D03*
D11*
X479552Y435088D03*
X409552Y435088D03*
X419552Y435088D03*
X429552Y435088D03*
X439552Y435088D03*
X449552Y435088D03*
X459552Y435088D03*
X469552Y435088D03*
X489552Y435088D03*
X499552Y435088D03*
X509552Y435088D03*
X519552Y435088D03*
X529552Y435088D03*
X539552Y435088D03*
X549552Y435088D03*
D12*
X330804Y185464D03*
X330804Y203464D03*
X331016Y219500D03*
X331016Y237500D03*
X330900Y266400D03*
X330900Y284400D03*
X206802Y283909D03*
X206802Y301909D03*
D13*
X147370Y211232D03*
X184370Y211232D03*
X184370Y233232D03*
X147370Y233232D03*
D14*
X217920Y267442D03*
X217920Y260942D03*
X217920Y254442D03*
X217920Y247942D03*
X217920Y241442D03*
X217920Y234942D03*
X217920Y228442D03*
X217920Y221942D03*
X217920Y215442D03*
X217920Y208942D03*
X217920Y202442D03*
X217920Y195942D03*
X217920Y189442D03*
X217920Y182942D03*
X289920Y182942D03*
X289920Y189442D03*
X289920Y195942D03*
X289920Y202442D03*
X289920Y208942D03*
X289920Y215442D03*
X289920Y221942D03*
X289920Y228442D03*
X289920Y234942D03*
X289920Y241442D03*
X289920Y247942D03*
X289920Y254442D03*
X289920Y260942D03*
X289920Y267442D03*
D15*
X181720Y251714D03*
X163720Y251714D03*
X147972Y186690D03*
X165972Y186690D03*
D16*
X182372Y294132D03*
X182372Y314452D03*
D17*
X99078Y338836D03*
X133078Y338836D03*
X107932Y166370D03*
X73932Y166370D03*
D18*
X158496Y153416D03*
X138176Y153416D03*
X51816Y339344D03*
X72136Y339344D03*
D12*
X60706Y397400D03*
X60706Y415400D03*
X86106Y440800D03*
X86106Y422800D03*
D15*
X185056Y412750D03*
X203056Y412750D03*
D19*
X66224Y373888D03*
X89224Y373888D03*
X180778Y374447D03*
X203778Y374447D03*
D20*
X83156Y409800D03*
X83156Y403300D03*
X83156Y396800D03*
X83156Y390300D03*
X127156Y390300D03*
X127156Y396800D03*
X127156Y403300D03*
X127156Y409800D03*
D21*
X155956Y412750D03*
X155956Y438150D03*
D15*
X141673Y374650D03*
X159673Y374650D03*
X105808Y374650D03*
X123808Y374650D03*
D12*
X124206Y422800D03*
X124206Y440800D03*
X258318Y134984D03*
X258318Y116984D03*
X235712Y135238D03*
X235712Y117238D03*
X214122Y134984D03*
X214122Y116984D03*
X258318Y84692D03*
X258318Y66692D03*
X235712Y84692D03*
X235712Y66692D03*
X214122Y84692D03*
X214122Y66692D03*
D22*
X79405Y234523D02*
X79405Y238123D01*
X84405Y238123D02*
X84405Y234523D01*
X89405Y234523D02*
X89405Y238123D01*
X94405Y238123D02*
X94405Y234523D01*
X94405Y262523D02*
X94405Y266123D01*
X89405Y266123D02*
X89405Y262523D01*
X84405Y262523D02*
X84405Y266123D01*
X79405Y266123D02*
X79405Y262523D01*
D23*
X75345Y257683D02*
X98465Y257683D01*
X98465Y242963D01*
X75345Y242963D01*
X75345Y257683D01*
X75345Y244242D02*
X98465Y244242D01*
X98465Y245521D02*
X75345Y245521D01*
X75345Y246800D02*
X98465Y246800D01*
X98465Y248079D02*
X75345Y248079D01*
X75345Y249358D02*
X98465Y249358D01*
X98465Y250637D02*
X75345Y250637D01*
X75345Y251916D02*
X98465Y251916D01*
X98465Y253195D02*
X75345Y253195D01*
X75345Y254474D02*
X98465Y254474D01*
X98465Y255753D02*
X75345Y255753D01*
X75345Y257032D02*
X98465Y257032D01*
D24*
X82777Y299747D03*
X54777Y299747D03*
D12*
X116905Y241323D03*
X116905Y259323D03*
D24*
X72905Y210323D03*
X100905Y210323D03*
D17*
X783572Y738886D03*
X749572Y738886D03*
D18*
X829564Y739140D03*
X809244Y739140D03*
D25*
X871600Y694680D03*
X871600Y534680D03*
D26*
X893600Y614680D03*
X893600Y684680D03*
X893600Y674680D03*
X893600Y664680D03*
X893600Y654680D03*
X893600Y644680D03*
X893600Y634680D03*
X893600Y624680D03*
X893600Y604680D03*
X893600Y594680D03*
X893600Y584680D03*
X893600Y574680D03*
X893600Y564680D03*
X893600Y554680D03*
X893600Y544680D03*
M02*
